<?xml version="1.0" encoding="utf-8"?>
<!-- Generator: Adobe Illustrator 24.0.1, SVG Export Plug-In . SVG Version: 6.00 Build 0)  -->
<svg version="1.1" id="bold" xmlns="http://www.w3.org/2000/svg" xmlns:xlink="http://www.w3.org/1999/xlink" x="0px" y="0px"
	 viewBox="0 0 331 295" style="enable-background:new 0 0 331 295;" xml:space="preserve">
<g>
	<path d="M295.7,287.3h-64c-8.8,0-16-6.7-16-14.9V23.9c0-8.2,7.2-14.9,16-14.9h64c8.8,0,16,6.7,16,14.9v248.5
		C311.7,280.7,304.5,287.3,295.7,287.3z"/>
</g>
<g>
	<path d="M194.2,287.3h-64c-8.8,0-16-6.6-16-14.7V66.7c0-8.1,7.2-14.7,16-14.7h64c8.8,0,16,6.6,16,14.7v205.9
		C210.2,280.7,203,287.3,194.2,287.3z"/>
</g>
<g>
	<path d="M92.7,287.3h-64c-8.8,0-16-6.4-16-14.2V131.2c0-7.8,7.2-14.2,16-14.2h64c8.8,0,16,6.4,16,14.2v141.9
		C108.7,281,101.5,287.3,92.7,287.3z"/>
</g>
</svg>
